…
```R
summary_by_regionName <- esim_data %>%
  group_by(regionName) %>%
  summarise(
    count = n(),                       # Count of observations
    mean_mark100 = mean(mark100),      # Average of mark100
    median_mark100 = median(mark100),  # Median of mark100
    sd_mark100 = sd(mark100)) %>%      # Standard deviation of mark100
  arrange(desc(count))                 # most observations per region at the top

summary_by_regionName

# A tibble: 86 x 5
   regionName                count mean_mark100 median_mark100 sd_mark100
   <chr>                     <int>        <dbl>          <dbl>      <dbl>
 1 Magadan oblast             2671         41.3           40.7       23.4
 2 Sakhalin oblast            2441         39.7           38.5       23.0
 3 Novgorod oblast            2219         38.8           37.0       21.5
 4 Moscow                     2036         40.8           38.9       22.6
 5 Perm Territory             2018         45.7           43.0       25.0
 6 Republic of Bashkortostan  1464         44.3           42.9       25.3
 7 Kamchatsky Krai            1409         42.2           41.0       22.9
 8 Ryazan oblast              1388         41.8           41.8       22.2
 9 Ulyanovsk oblast           1299         40.6           37.4       23.6
10 Republic of Altai          1153         46.9           46.0       21.6
# i 76 more rows
```
…
```R
# Grouping results by competitors and regions
cg <- esim_data %>% 
  group_by(competitor, region)  %>% 
  summarise(results = n(), 
            mean_score100 = mean(mark100), 
            max_score100 = max(mark100),
            min_score100 = min(mark100)) %>%
  arrange(desc(results)) 

# Quick look at the summary 
cg

# A tibble: 38,871 x 6
# Groups:   competitor [38,625]
   competitor region results mean_score100 max_score100 min_score100
        <dbl>  <dbl>   <int>         <dbl>        <dbl>        <dbl>
 1     101215     65       7          48.7         88.0        29.1 
 2     106308     53       7          34.2         48.3        12.2 
 3      75717     65       6          28.4         51.3        12.8 
 4      82474     76       6          18.7         31.7         9.85
 5      98028     81       6          74.4         94.8        20   
 6     103102     65       6          34.1         93.4         3.04
 7     106341     53       6          56.5         95.6        20   
 8     106381     53       6          61.6         79.0        35.0 
 9     106959     59       6          86.6         95.8        66.9 
10    1041592     76       6          39.7         60.4        16.2 
# i 38,861 more rows
```
…
```R
# Grouping results by competitors and regions
eg <- esim_data %>% 
  group_by(expert, region)  %>% 
  summarise(results = n(), 
            mean_score100 = mean(mark100), 
            max_score100 = max(mark100),
            min_score100 = min(mark100)) %>%
  arrange(desc(results)) 

# Quick look at the summary 
eg

# A tibble: 27,205 x 6
# Groups:   expert [26,805]
   expert region results mean_score100 max_score100 min_score100
    <dbl>  <dbl>   <int>         <dbl>        <dbl>        <dbl>
 1  25211     45      25          64.3         81.8        29.3 
 2  62816     26      20          67.0         85.4        53.4 
 3 106634     65      20          70.8         95.2        50.3 
 4  77970     49      19          72.0         85.4        58.4 
 5  18238     76      15          70.5         87.4        36.8 
 6  25683     16      15          75.1         85.3        56.9 
 7  30547      2      15          79.0         80.5        76   
 8  43014     65      15          27.7         54.8         4.51
 9  62196     62      15          69.9         86.5        58.6 
10  94088      6      15          69.0         81.5        55.4 
# i 27,195 more rows
```
…
